3 Boundaries of Malawi – Reproducible documentation
…
Code

# Checking Zomba City in plasma dataset
plasma.df %>% dplyr::filter(dist_name2 == "zomba") %>% 
  select(survey_cluster1, EACODE, ADM2_EN, dist_name2, urbanity) %>% distinct()

# A tibble: 128 × 5
   survey_cluster1   EACODE ADM2_EN dist_name2 urbanity
             <dbl>    <dbl> <chr>   <chr>      <fct>   
 1             218 30307024 Zomba   zomba      2       
 2             218 30301017 Zomba   zomba      2       
 3             218 30301031 Zomba   zomba      2       
 4             218 30301019 Zomba   zomba      2       
 5             218 30307809 Zomba   zomba      2       
 6             218 30301045 Zomba   zomba      2       
 7             218 30307023 Zomba   zomba      2       
 8             218 30307807 Zomba   zomba      2       
 9             218 30307019 Zomba   zomba      2       
10             218 30307021 Zomba   zomba      2       
# ℹ 118 more rows
…
